{
  "addons": {
    "isat@addon.crimeflare.eu.org": {
      "updates": [
        {
          "applications": {
            "gecko": {
              "strict_min_version": "91.0"
            }
          },
          "version": "1.0.6.3",
          "update_link": "https://framagit.org/dCF/deCloudflare/-/raw/master/addons/releases/isat.xpi?9669a508e6aa6d65c7e3942793c0f95b684f4ca1d0eff364f8293af60127a50c",
          "update_hash": "sha256:9669a508e6aa6d65c7e3942793c0f95b684f4ca1d0eff364f8293af60127a50c"
        }
      ]
    },
    "ismm@addon.crimeflare.eu.org": {
      "updates": [
        {
          "applications": {
            "gecko": {
              "strict_min_version": "91.0"
            }
          },
          "version": "1.0.25.3",
          "update_link": "https://framagit.org/dCF/deCloudflare/-/raw/master/addons/releases/ismm.xpi?16e50c088f0378245fd04313e10f46b8555d2214da0c392f756d393d503743f4",
          "update_hash": "sha256:16e50c088f0378245fd04313e10f46b8555d2214da0c392f756d393d503743f4"
        }
      ]
    },
    "urjm@addon.crimeflare.eu.org": {
      "updates": [
        {
          "applications": {
            "gecko": {
              "strict_min_version": "91.0"
            }
          },
          "version": "1.0.6",
          "update_link": "https://framagit.org/dCF/deCloudflare/-/raw/master/addons/releases/urjm.xpi?94e7134b2d129877cdf1c40bc9d9cc447b4fca95b8dcaf6db58cf74ed4c25b2e",
          "update_hash": "sha256:94e7134b2d129877cdf1c40bc9d9cc447b4fca95b8dcaf6db58cf74ed4c25b2e"
        }
      ]
    }
  }
}